Sentiment_Lobby
…
# NRC Sentiment Analysis - Trust
nrc_trust <-get_sentiments("nrc") %>% 
        filter(sentiment == "trust")

sent1_trust <- lobby1 %>%
        inner_join(nrc_trust) %>%
        count(word, sort = TRUE)

## Joining, by = "word"

sent1_trust

## # A tibble: 36 x 2
##    word         n
##    <chr>    <int>
##  1 trade    59703
##  2 nation   59600
##  3 center   46872
##  4 white    46768
##  5 interior 37468
##  6 budget   34132
##  7 labor    27261
##  8 food     21296
##  9 council  20846
## 10 veteran  13008
## #  with 26 more rows
…
## Joining, by = "word"

# Bing sentiment analysis
lobby2_sentiment <- lobby2 %>%
        inner_join(get_sentiments("bing")) %>%
        count(word, sentiment, sort = TRUE) %>%
        ungroup()

## Joining, by = "word"

lobby2_sentiment

## # A tibble: 316 x 3
##    word      sentiment     n
##    <chr>     <chr>     <int>
##  1 trust     positive   1652
##  2 cancer    negative   1164
##  3 protect   positive   1015
##  4 reform    positive    986
##  5 rail      negative    848
##  6 fair      positive    830
##  7 clean     positive    769
##  8 right     positive    766
##  9 angel     positive    720
## 10 entertain positive    587
## #  with 306 more rows
…
# NRC Sentiment Analysis - Disgust
nrc_disgust <- get_sentiments("nrc") %>% 
        filter(sentiment == "disgust")

sent2_disgust <- lobby2 %>%
        inner_join(nrc_disgust) %>%
        count(word, sort = TRUE)

## Joining, by = "word"

sent2_disgust

## # A tibble: 81 x 2
##    word          n
##    <chr>     <int>
##  1 cancer     1164
##  2 john        778
##  3 petroleum   704
##  4 congress    399
##  5 sewer       276
##  6 desert      214
##  7 tree        188
##  8 lawyer      186
##  9 cove        162
## 10 coop         90
## #  with 71 more rows
…
## Joining, by = "word"

# Bing sentiment analysis
lobby4_sentiment <- lobby4 %>%
        inner_join(get_sentiments("bing")) %>%
        count(word, sentiment, sort = TRUE) %>%
        ungroup()

## Joining, by = "word"

lobby4_sentiment

## # A tibble: 350 x 3
##    word      sentiment     n
##    <chr>     <chr>     <int>
##  1 trust     positive  16670
##  2 cancer    negative  10951
##  3 free      positive   8542
##  4 reform    positive   8532
##  5 right     positive   7400
##  6 clean     positive   7384
##  7 win       positive   7380
##  8 protect   positive   7196
##  9 entertain positive   6889
## 10 angel     positive   6058
## #  with 340 more rows
…
