Final Project
…
registrant <- agg2018 %>%
  distinct(Registrant) %>%
  dplyr::rename(label = Registrant)

client <- agg2018 %>%
  distinct(Client) %>%
  dplyr::rename(label = Client)

nodes <- full_join(lobby_id, client, by = "label") %>% 
  rowid_to_column("id")
nodes

## # A tibble: 72 x 2
##       id label             
##    <int> <chr>             
##  1     1 Lapinski, Mathew  
##  2     2 Nevins, Kyle      
##  3     3 Rossman, Manny    
##  4     4 Stombres, Steve   
##  5     5 O'Neill, John J   
##  6     6 Downs, Raissa H   
##  7     7 Easton, Michelle P
##  8     8 Ivancic, Charlotte
##  9     9 Murray, Elizabeth 
## 10    10 Smith, Pam        
## # ... with 62 more rows

lobby_registrant <- agg2018 %>%  
  group_by(Lobbyist, Client) %>%
  dplyr::summarise(weight = n()) %>% 
  ungroup()
lobby_registrant

## # A tibble: 50 x 3
##    Lobbyist            Client                     weight
##    <chr>               <chr>                       <int>
##  1 Aronson, Lauren     Hewlett Packard Enterprise      1
##  2 Ballard, Brian      Lathrop & Gage                  1
##  3 Benn, Rebecca       ARTOC Auto                      1
##  4 Blalock, Kirk       Oracle Corp                     1
##  5 Brownstein, Norman  FedEx Corp                      1
##  6 Castagnetti, David  Rapid7 Inc                      1
##  7 Chadwick, Kirsten   Oracle Corp                     1
##  8 Chappell, Mike      Oracle Corp                     1
##  9 Collins, Mike       Rapid7 Inc                      1
## 10 Cranford, Jay N III Lennox International            1
## # ... with 40 more rows

edges <- lobby_registrant %>% 
  left_join(nodes, by = c("Lobbyist" = "label")) %>% 
  dplyr::rename(from = id)

edges <- edges %>% 
  left_join(nodes, by = c("Client" = "label")) %>% 
  dplyr::rename(to = id)

edges <- select(edges, from, to, weight)

edges 

## # A tibble: 50 x 3
##     from    to weight
##    <int> <int>  <int>
##  1    40    66      1
##  2    12    54      1
##  3    30    63      1
##  4    31    64      1
##  5    49    71      1
##  6    19    59      1
##  7    32    64      1
##  8    33    64      1
##  9    20    59      1
## 10    14    55      1
## # ... with 40 more rows
…
